	Orden #4
 Universidad Tecnológica de Cancún
    utcancun.edu.mx
      2017-06-21

------------------------------------

Cantidad  Articulo   Precio   Subtotal

  3  	arroz
		---- $40   $120 
  3  	camarones BBQ
		---- $200   $600 	

---------------------------------------
	*** Total: $720 ***
	Efectivo: $750

	*** Canbio:$30 ***
