	     Orden #8
 Universidad Tecnologica de Cancun
           2017-06-22
    Benito Juarez Quintana Roo

------------------------------------

Cantidad  Articulo   Precio   Subtotal

  9  	arroz
		---- $40   $360 	

------------------------------------

            Subtotal: $360
            IVA 16% -- $57.6
            
            *** Total: $417.6 ***
	    *** Efectivo: $450 ***
        ---------------------------
	     *** Cambio:$90 ***

    Comentarios y sugerencias en
         utcancun.edu.mx
       Lo que bien se dice...
         bien se entiende
